LOG_FILE.log
UVM_INFO /home/runner/alu_scoreboard.sv(145) @ 0: uvm_test_top.env_h.scoreboard_h [write_mon OUT ] in1=00000000  in2=00000000 s=0000 m=0 cin=0  out=xxxxxxxx cout=x aeb=x
UVM_INFO /home/runner/alu_scoreboard.sv(45) @ 5: uvm_test_top.env_h.scoreboard_h [write_drv STIM] in1=00110100  in2=01100010 s=0000 m=1 cin=0
UVM_INFO /home/runner/alu_scoreboard.sv(145) @ 5: uvm_test_top.env_h.scoreboard_h [write_mon OUT ] in1=00110100  in2=01100010 s=0000 m=1 cin=0  out=00000001 cout=0 aeb=0
UVM_INFO /home/runner/alu_scoreboard.sv(45) @ 10: uvm_test_top.env_h.scoreboard_h [write_drv STIM] in1=10100001  in2=11001011 s=0001 m=1 cin=0
UVM_INFO /home/runner/alu_scoreboard.sv(145) @ 10: uvm_test_top.env_h.scoreboard_h [write_mon OUT ] in1=10100001  in2=11001011 s=0001 m=1 cin=0  out=11001011 cout=1 aeb=0
UVM_INFO /home/runner/alu_scoreboard.sv(45) @ 15: uvm_test_top.env_h.scoreboard_h [write_drv STIM] in1=01111011  in2=10011101 s=0010 m=1 cin=0
UVM_INFO /home/runner/alu_scoreboard.sv(145) @ 15: uvm_test_top.env_h.scoreboard_h [write_mon OUT ] in1=01111011  in2=10011101 s=0010 m=1 cin=0  out=00010100 cout=0 aeb=0
UVM_INFO /home/runner/alu_scoreboard.sv(160) @ 15: uvm_test_top.env_h.scoreboard_h [
 PASS ] in1=01111011  in2=10011101 s=0010 m=1 cin=0  out=00010100 cout=0 aeb=0
UVM_INFO /home/runner/alu_scoreboard.sv(45) @ 20: uvm_test_top.env_h.scoreboard_h [write_drv STIM] in1=11011000  in2=11100010 s=0011 m=1 cin=0
UVM_INFO /home/runner/alu_scoreboard.sv(145) @ 20: uvm_test_top.env_h.scoreboard_h [write_mon OUT ] in1=11011000  in2=11100010 s=0011 m=1 cin=0  out=10000100 cout=1 aeb=0
UVM_INFO /home/runner/alu_scoreboard.sv(160) @ 20: uvm_test_top.env_h.scoreboard_h [
 PASS ] in1=11011000  in2=11100010 s=0011 m=1 cin=0  out=10000100 cout=1 aeb=0
UVM_INFO /home/runner/alu_scoreboard.sv(45) @ 25: uvm_test_top.env_h.scoreboard_h [write_drv STIM] in1=01111100  in2=10110110 s=0100 m=1 cin=0
UVM_INFO /home/runner/alu_scoreboard.sv(145) @ 25: uvm_test_top.env_h.scoreboard_h [write_mon OUT ] in1=01111100  in2=10110110 s=0100 m=1 cin=0  out=00000000 cout=0 aeb=0
UVM_INFO /home/runner/alu_scoreboard.sv(160) @ 25: uvm_test_top.env_h.scoreboard_h [
 PASS ] in1=01111100  in2=10110110 s=0100 m=1 cin=0  out=00000000 cout=0 aeb=0
UVM_INFO /home/runner/alu_scoreboard.sv(45) @ 30: uvm_test_top.env_h.scoreboard_h [write_drv STIM] in1=10001001  in2=00111111 s=0101 m=1 cin=0
UVM_INFO /home/runner/alu_scoreboard.sv(145) @ 30: uvm_test_top.env_h.scoreboard_h [write_mon OUT ] in1=10001001  in2=00111111 s=0101 m=1 cin=0  out=11001011 cout=0 aeb=0
UVM_INFO /home/runner/alu_scoreboard.sv(160) @ 30: uvm_test_top.env_h.scoreboard_h [
 PASS ] in1=10001001  in2=00111111 s=0101 m=1 cin=0  out=11001011 cout=0 aeb=0
UVM_INFO /home/runner/alu_scoreboard.sv(45) @ 35: uvm_test_top.env_h.scoreboard_h [write_drv STIM] in1=11111111  in2=01111101 s=0110 m=1 cin=0
UVM_INFO /home/runner/alu_scoreboard.sv(145) @ 35: uvm_test_top.env_h.scoreboard_h [write_mon OUT ] in1=11111111  in2=01111101 s=0110 m=1 cin=0  out=11000000 cout=0 aeb=0
UVM_INFO /home/runner/alu_scoreboard.sv(160) @ 35: uvm_test_top.env_h.scoreboard_h [
 PASS ] in1=11111111  in2=01111101 s=0110 m=1 cin=0  out=11000000 cout=0 aeb=0
UVM_INFO /home/runner/alu_scoreboard.sv(45) @ 40: uvm_test_top.env_h.scoreboard_h [write_drv STIM] in1=11011110  in2=01110000 s=0111 m=1 cin=0
UVM_INFO /home/runner/alu_scoreboard.sv(145) @ 40: uvm_test_top.env_h.scoreboard_h [write_mon OUT ] in1=11011110  in2=01110000 s=0111 m=1 cin=0  out=10000010 cout=0 aeb=0
UVM_INFO /home/runner/alu_scoreboard.sv(160) @ 40: uvm_test_top.env_h.scoreboard_h [
 PASS ] in1=11011110  in2=01110000 s=0111 m=1 cin=0  out=10000010 cout=0 aeb=0
UVM_INFO /home/runner/alu_scoreboard.sv(45) @ 45: uvm_test_top.env_h.scoreboard_h [write_drv STIM] in1=00100110  in2=00011000 s=1000 m=1 cin=0
UVM_INFO /home/runner/alu_scoreboard.sv(145) @ 45: uvm_test_top.env_h.scoreboard_h [write_mon OUT ] in1=00100110  in2=00011000 s=1000 m=1 cin=0  out=10001110 cout=0 aeb=0
UVM_INFO /home/runner/alu_scoreboard.sv(160) @ 45: uvm_test_top.env_h.scoreboard_h [
 PASS ] in1=00100110  in2=00011000 s=1000 m=1 cin=0  out=10001110 cout=0 aeb=0
UVM_INFO /home/runner/alu_scoreboard.sv(45) @ 50: uvm_test_top.env_h.scoreboard_h [write_drv STIM] in1=11010111  in2=01110101 s=1001 m=1 cin=0
UVM_INFO /home/runner/alu_scoreboard.sv(145) @ 50: uvm_test_top.env_h.scoreboard_h [write_mon OUT ] in1=11010111  in2=01110101 s=1001 m=1 cin=0  out=11011001 cout=0 aeb=0
UVM_INFO /home/runner/alu_scoreboard.sv(160) @ 50: uvm_test_top.env_h.scoreboard_h [
 PASS ] in1=11010111  in2=01110101 s=1001 m=1 cin=0  out=11011001 cout=0 aeb=0
UVM_INFO /home/runner/alu_scoreboard.sv(45) @ 55: uvm_test_top.env_h.scoreboard_h [write_drv STIM] in1=11110001  in2=10000111 s=1010 m=1 cin=0
UVM_INFO /home/runner/alu_scoreboard.sv(145) @ 55: uvm_test_top.env_h.scoreboard_h [write_mon OUT ] in1=11110001  in2=10000111 s=1010 m=1 cin=0  out=01011101 cout=1 aeb=0
UVM_INFO /home/runner/alu_scoreboard.sv(160) @ 55: uvm_test_top.env_h.scoreboard_h [
 PASS ] in1=11110001  in2=10000111 s=1010 m=1 cin=0  out=01011101 cout=1 aeb=0
UVM_INFO /home/runner/alu_scoreboard.sv(45) @ 60: uvm_test_top.env_h.scoreboard_h [write_drv STIM] in1=01110100  in2=01001110 s=1011 m=1 cin=0
UVM_INFO /home/runner/alu_scoreboard.sv(145) @ 60: uvm_test_top.env_h.scoreboard_h [write_mon OUT ] in1=01110100  in2=01001110 s=1011 m=1 cin=0  out=10000111 cout=0 aeb=0
UVM_INFO /home/runner/alu_scoreboard.sv(160) @ 60: uvm_test_top.env_h.scoreboard_h [
 PASS ] in1=01110100  in2=01001110 s=1011 m=1 cin=0  out=10000111 cout=0 aeb=0
UVM_INFO /home/runner/alu_scoreboard.sv(45) @ 65: uvm_test_top.env_h.scoreboard_h [write_drv STIM] in1=01100000  in2=11001010 s=1100 m=1 cin=0
UVM_INFO /home/runner/alu_scoreboard.sv(145) @ 65: uvm_test_top.env_h.scoreboard_h [write_mon OUT ] in1=01100000  in2=11001010 s=1100 m=1 cin=0  out=01000100 cout=0 aeb=0
UVM_INFO /home/runner/alu_scoreboard.sv(160) @ 65: uvm_test_top.env_h.scoreboard_h [
 PASS ] in1=01100000  in2=11001010 s=1100 m=1 cin=0  out=01000100 cout=0 aeb=0
UVM_INFO /home/runner/alu_scoreboard.sv(45) @ 70: uvm_test_top.env_h.scoreboard_h [write_drv STIM] in1=10110101  in2=11111011 s=1101 m=1 cin=0
UVM_INFO /home/runner/alu_scoreboard.sv(145) @ 70: uvm_test_top.env_h.scoreboard_h [write_mon OUT ] in1=10110101  in2=11111011 s=1101 m=1 cin=0  out=00000001 cout=1 aeb=0
UVM_INFO /home/runner/alu_scoreboard.sv(160) @ 70: uvm_test_top.env_h.scoreboard_h [
 PASS ] in1=10110101  in2=11111011 s=1101 m=1 cin=0  out=00000001 cout=1 aeb=0
UVM_INFO /home/runner/alu_scoreboard.sv(45) @ 75: uvm_test_top.env_h.scoreboard_h [write_drv STIM] in1=01110011  in2=11100001 s=1110 m=1 cin=0
UVM_INFO /home/runner/alu_scoreboard.sv(145) @ 75: uvm_test_top.env_h.scoreboard_h [write_mon OUT ] in1=01110011  in2=11100001 s=1110 m=1 cin=0  out=10110101 cout=0 aeb=0
UVM_INFO /home/runner/alu_scoreboard.sv(160) @ 75: uvm_test_top.env_h.scoreboard_h [
 PASS ] in1=01110011  in2=11100001 s=1110 m=1 cin=0  out=10110101 cout=0 aeb=0
UVM_INFO /home/runner/alu_scoreboard.sv(45) @ 80: uvm_test_top.env_h.scoreboard_h [write_drv STIM] in1=10011010  in2=01111100 s=1111 m=1 cin=0
UVM_INFO /home/runner/alu_scoreboard.sv(145) @ 80: uvm_test_top.env_h.scoreboard_h [write_mon OUT ] in1=10011010  in2=01111100 s=1111 m=1 cin=0  out=11110011 cout=0 aeb=0
UVM_INFO /home/runner/alu_scoreboard.sv(160) @ 80: uvm_test_top.env_h.scoreboard_h [
 PASS ] in1=10011010  in2=01111100 s=1111 m=1 cin=0  out=11110011 cout=0 aeb=0
UVM_INFO /home/runner/alu_scoreboard.sv(45) @ 85: uvm_test_top.env_h.scoreboard_h [write_drv STIM] in1=00101010  in2=11001100 s=0000 m=1 cin=0
UVM_INFO /home/runner/alu_scoreboard.sv(145) @ 85: uvm_test_top.env_h.scoreboard_h [write_mon OUT ] in1=00101010  in2=11001100 s=0000 m=1 cin=0  out=10011010 cout=0 aeb=0
UVM_INFO /home/runner/alu_scoreboard.sv(160) @ 85: uvm_test_top.env_h.scoreboard_h [
 PASS ] in1=00101010  in2=11001100 s=0000 m=1 cin=0  out=10011010 cout=0 aeb=0
UVM_INFO /home/runner/alu_scoreboard.sv(45) @ 90: uvm_test_top.env_h.scoreboard_h [write_drv STIM] in1=00100011  in2=11010001 s=0001 m=1 cin=0
UVM_INFO /home/runner/alu_scoreboard.sv(145) @ 90: uvm_test_top.env_h.scoreboard_h [write_mon OUT ] in1=00100011  in2=11010001 s=0001 m=1 cin=0  out=11010101 cout=0 aeb=0
UVM_INFO /home/runner/alu_scoreboard.sv(160) @ 90: uvm_test_top.env_h.scoreboard_h [
 PASS ] in1=00100011  in2=11010001 s=0001 m=1 cin=0  out=11010101 cout=0 aeb=0
UVM_INFO /home/runner/alu_scoreboard.sv(45) @ 95: uvm_test_top.env_h.scoreboard_h [write_drv STIM] in1=10000101  in2=10001011 s=0010 m=1 cin=0
UVM_INFO /home/runner/alu_scoreboard.sv(145) @ 95: uvm_test_top.env_h.scoreboard_h [write_mon OUT ] in1=10000101  in2=10001011 s=0010 m=1 cin=0  out=00001100 cout=1 aeb=0
UVM_INFO /home/runner/alu_scoreboard.sv(160) @ 95: uvm_test_top.env_h.scoreboard_h [
 PASS ] in1=10000101  in2=10001011 s=0010 m=1 cin=0  out=00001100 cout=1 aeb=0
UVM_INFO /home/runner/alu_scoreboard.sv(45) @ 100: uvm_test_top.env_h.scoreboard_h [write_drv STIM] in1=01010000  in2=11111010 s=0011 m=1 cin=0
UVM_INFO /home/runner/alu_scoreboard.sv(145) @ 100: uvm_test_top.env_h.scoreboard_h [write_mon OUT ] in1=01010000  in2=11111010 s=0011 m=1 cin=0  out=00001010 cout=0 aeb=0
UVM_INFO /home/runner/alu_scoreboard.sv(160) @ 100: uvm_test_top.env_h.scoreboard_h [
 PASS ] in1=01010000  in2=11111010 s=0011 m=1 cin=0  out=00001010 cout=0 aeb=0
UVM_INFO /home/runner/alu_scoreboard.sv(45) @ 105: uvm_test_top.env_h.scoreboard_h [write_drv STIM] in1=10000100  in2=00011110 s=0100 m=1 cin=0
UVM_INFO /home/runner/alu_scoreboard.sv(145) @ 105: uvm_test_top.env_h.scoreboard_h [write_mon OUT ] in1=10000100  in2=00011110 s=0100 m=1 cin=0  out=00000000 cout=0 aeb=0
UVM_INFO /home/runner/alu_scoreboard.sv(160) @ 105: uvm_test_top.env_h.scoreboard_h [
 PASS ] in1=10000100  in2=00011110 s=0100 m=1 cin=0  out=00000000 cout=0 aeb=0
UVM_INFO /home/runner/alu_scoreboard.sv(45) @ 110: uvm_test_top.env_h.scoreboard_h [write_drv STIM] in1=00100001  in2=11110111 s=0101 m=1 cin=0
UVM_INFO /home/runner/alu_scoreboard.sv(145) @ 110: uvm_test_top.env_h.scoreboard_h [write_mon OUT ] in1=00100001  in2=11110111 s=0101 m=1 cin=0  out=11111011 cout=0 aeb=0
UVM_INFO /home/runner/alu_scoreboard.sv(160) @ 110: uvm_test_top.env_h.scoreboard_h [
 PASS ] in1=00100001  in2=11110111 s=0101 m=1 cin=0  out=11111011 cout=0 aeb=0
UVM_INFO /home/runner/alu_scoreboard.sv(45) @ 115: uvm_test_top.env_h.scoreboard_h [write_drv STIM] in1=00100111  in2=10000101 s=0110 m=1 cin=0
UVM_INFO /home/runner/alu_scoreboard.sv(145) @ 115: uvm_test_top.env_h.scoreboard_h [write_mon OUT ] in1=00100111  in2=10000101 s=0110 m=1 cin=0  out=00001000 cout=0 aeb=0
UVM_INFO /home/runner/alu_scoreboard.sv(160) @ 115: uvm_test_top.env_h.scoreboard_h [
 PASS ] in1=00100111  in2=10000101 s=0110 m=1 cin=0  out=00001000 cout=0 aeb=0
UVM_INFO /home/runner/alu_scoreboard.sv(45) @ 120: uvm_test_top.env_h.scoreboard_h [write_drv STIM] in1=10010110  in2=11001000 s=0111 m=1 cin=0
UVM_INFO /home/runner/alu_scoreboard.sv(145) @ 120: uvm_test_top.env_h.scoreboard_h [write_mon OUT ] in1=10010110  in2=11001000 s=0111 m=1 cin=0  out=10100010 cout=1 aeb=0
UVM_INFO /home/runner/alu_scoreboard.sv(160) @ 120: uvm_test_top.env_h.scoreboard_h [
 PASS ] in1=10010110  in2=11001000 s=0111 m=1 cin=0  out=10100010 cout=1 aeb=0
UVM_INFO /home/runner/alu_scoreboard.sv(45) @ 125: uvm_test_top.env_h.scoreboard_h [write_drv STIM] in1=01101110  in2=11000000 s=1000 m=1 cin=0
UVM_INFO /home/runner/alu_scoreboard.sv(145) @ 125: uvm_test_top.env_h.scoreboard_h [write_mon OUT ] in1=01101110  in2=11000000 s=1000 m=1 cin=0  out=00010110 cout=0 aeb=0
UVM_INFO /home/runner/alu_scoreboard.sv(160) @ 125: uvm_test_top.env_h.scoreboard_h [
 PASS ] in1=01101110  in2=11000000 s=1000 m=1 cin=0  out=00010110 cout=0 aeb=0
UVM_INFO /home/runner/alu_scoreboard.sv(45) @ 130: uvm_test_top.env_h.scoreboard_h [write_drv STIM] in1=10101111  in2=01101101 s=1001 m=1 cin=0
UVM_INFO /home/runner/alu_scoreboard.sv(145) @ 130: uvm_test_top.env_h.scoreboard_h [write_mon OUT ] in1=10101111  in2=01101101 s=1001 m=1 cin=0  out=11010001 cout=0 aeb=0
UVM_INFO /home/runner/alu_scoreboard.sv(160) @ 130: uvm_test_top.env_h.scoreboard_h [
 PASS ] in1=10101111  in2=01101101 s=1001 m=1 cin=0  out=11010001 cout=0 aeb=0
UVM_INFO /home/runner/alu_scoreboard.sv(45) @ 135: uvm_test_top.env_h.scoreboard_h [write_drv STIM] in1=01011001  in2=11001111 s=1010 m=1 cin=0
UVM_INFO /home/runner/alu_scoreboard.sv(145) @ 135: uvm_test_top.env_h.scoreboard_h [write_mon OUT ] in1=01011001  in2=11001111 s=1010 m=1 cin=0  out=00111101 cout=0 aeb=0
UVM_INFO /home/runner/alu_scoreboard.sv(160) @ 135: uvm_test_top.env_h.scoreboard_h [
 PASS ] in1=01011001  in2=11001111 s=1010 m=1 cin=0  out=00111101 cout=0 aeb=0
UVM_INFO /home/runner/alu_scoreboard.sv(45) @ 140: uvm_test_top.env_h.scoreboard_h [write_drv STIM] in1=01101100  in2=11100110 s=1011 m=1 cin=0
UVM_INFO /home/runner/alu_scoreboard.sv(145) @ 140: uvm_test_top.env_h.scoreboard_h [write_mon OUT ] in1=01101100  in2=11100110 s=1011 m=1 cin=0  out=11001111 cout=0 aeb=0
UVM_INFO /home/runner/alu_scoreboard.sv(160) @ 140: uvm_test_top.env_h.scoreboard_h [
 PASS ] in1=01101100  in2=11100110 s=1011 m=1 cin=0  out=11001111 cout=0 aeb=0
UVM_INFO /home/runner/alu_scoreboard.sv(45) @ 145: uvm_test_top.env_h.scoreboard_h [write_drv STIM] in1=11101000  in2=10110010 s=1100 m=1 cin=0
UVM_INFO /home/runner/alu_scoreboard.sv(145) @ 145: uvm_test_top.env_h.scoreboard_h [write_mon OUT ] in1=11101000  in2=10110010 s=1100 m=1 cin=0  out=01100100 cout=1 aeb=0
UVM_INFO /home/runner/alu_scoreboard.sv(160) @ 145: uvm_test_top.env_h.scoreboard_h [
 PASS ] in1=11101000  in2=10110010 s=1100 m=1 cin=0  out=01100100 cout=1 aeb=0
UVM_INFO /home/runner/alu_scoreboard.sv(45) @ 150: uvm_test_top.env_h.scoreboard_h [write_drv STIM] in1=11001101  in2=00110011 s=1101 m=1 cin=0
UVM_INFO /home/runner/alu_scoreboard.sv(145) @ 150: uvm_test_top.env_h.scoreboard_h [write_mon OUT ] in1=11001101  in2=00110011 s=1101 m=1 cin=0  out=00000001 cout=0 aeb=0
UVM_INFO /home/runner/alu_scoreboard.sv(160) @ 150: uvm_test_top.env_h.scoreboard_h [
 PASS ] in1=11001101  in2=00110011 s=1101 m=1 cin=0  out=00000001 cout=0 aeb=0
UVM_INFO /home/runner/alu_scoreboard.sv(45) @ 155: uvm_test_top.env_h.scoreboard_h [write_drv STIM] in1=00011011  in2=01101001 s=1110 m=1 cin=0
UVM_INFO /home/runner/alu_scoreboard.sv(145) @ 155: uvm_test_top.env_h.scoreboard_h [write_mon OUT ] in1=00011011  in2=01101001 s=1110 m=1 cin=0  out=11001101 cout=0 aeb=0
UVM_INFO /home/runner/alu_scoreboard.sv(160) @ 155: uvm_test_top.env_h.scoreboard_h [
 PASS ] in1=00011011  in2=01101001 s=1110 m=1 cin=0  out=11001101 cout=0 aeb=0
UVM_INFO /home/runner/alu_scoreboard.sv(45) @ 160: uvm_test_top.env_h.scoreboard_h [write_drv STIM] in1=11010010  in2=01010100 s=1111 m=1 cin=0
UVM_INFO /home/runner/alu_scoreboard.sv(145) @ 160: uvm_test_top.env_h.scoreboard_h [write_mon OUT ] in1=11010010  in2=01010100 s=1111 m=1 cin=0  out=01111011 cout=0 aeb=0
UVM_INFO /home/runner/alu_scoreboard.sv(160) @ 160: uvm_test_top.env_h.scoreboard_h [
 PASS ] in1=11010010  in2=01010100 s=1111 m=1 cin=0  out=01111011 cout=0 aeb=0
UVM_INFO /home/runner/alu_scoreboard.sv(45) @ 165: uvm_test_top.env_h.scoreboard_h [write_drv STIM] in1=00000100  in2=11110010 s=0000 m=0 cin=0
UVM_INFO /home/runner/alu_scoreboard.sv(145) @ 165: uvm_test_top.env_h.scoreboard_h [write_mon OUT ] in1=00000100  in2=11110010 s=0000 m=0 cin=0  out=11010010 cout=0 aeb=0
UVM_INFO /home/runner/alu_scoreboard.sv(160) @ 165: uvm_test_top.env_h.scoreboard_h [
 PASS ] in1=00000100  in2=11110010 s=0000 m=0 cin=0  out=11010010 cout=0 aeb=0
UVM_INFO /home/runner/alu_scoreboard.sv(45) @ 170: uvm_test_top.env_h.scoreboard_h [write_drv STIM] in1=00010001  in2=01111011 s=0001 m=0 cin=0
UVM_INFO /home/runner/alu_scoreboard.sv(145) @ 170: uvm_test_top.env_h.scoreboard_h [write_mon OUT ] in1=00010001  in2=01111011 s=0001 m=0 cin=0  out=00000101 cout=0 aeb=0
UVM_INFO /home/runner/alu_scoreboard.sv(160) @ 170: uvm_test_top.env_h.scoreboard_h [
 PASS ] in1=00010001  in2=01111011 s=0001 m=0 cin=0  out=00000101 cout=0 aeb=0
UVM_INFO /home/runner/alu_scoreboard.sv(45) @ 175: uvm_test_top.env_h.scoreboard_h [write_drv STIM] in1=10001011  in2=01101101 s=0010 m=0 cin=0
UVM_INFO /home/runner/alu_scoreboard.sv(145) @ 175: uvm_test_top.env_h.scoreboard_h [write_mon OUT ] in1=10001011  in2=01101101 s=0010 m=0 cin=0  out=01111100 cout=0 aeb=0
UVM_INFO /home/runner/alu_scoreboard.sv(160) @ 175: uvm_test_top.env_h.scoreboard_h [
 PASS ] in1=10001011  in2=01101101 s=0010 m=0 cin=0  out=01111100 cout=0 aeb=0
UVM_INFO /home/runner/alu_scoreboard.sv(45) @ 180: uvm_test_top.env_h.scoreboard_h [write_drv STIM] in1=11001000  in2=00010010 s=0011 m=0 cin=0
UVM_INFO /home/runner/alu_scoreboard.sv(145) @ 180: uvm_test_top.env_h.scoreboard_h [write_mon OUT ] in1=11001000  in2=00010010 s=0011 m=0 cin=0  out=01111110 cout=0 aeb=0
UVM_INFO /home/runner/alu_scoreboard.sv(160) @ 180: uvm_test_top.env_h.scoreboard_h [
 PASS ] in1=11001000  in2=00010010 s=0011 m=0 cin=0  out=01111110 cout=0 aeb=0
UVM_INFO /home/runner/alu_scoreboard.sv(45) @ 185: uvm_test_top.env_h.scoreboard_h [write_drv STIM] in1=10001100  in2=10000110 s=0100 m=0 cin=0
UVM_INFO /home/runner/alu_scoreboard.sv(145) @ 185: uvm_test_top.env_h.scoreboard_h [write_mon OUT ] in1=10001100  in2=10000110 s=0100 m=0 cin=0  out=00000000 cout=1 aeb=0
UVM_INFO /home/runner/alu_scoreboard.sv(160) @ 185: uvm_test_top.env_h.scoreboard_h [
 PASS ] in1=10001100  in2=10000110 s=0100 m=0 cin=0  out=00000000 cout=1 aeb=0
UVM_INFO /home/runner/alu_scoreboard.sv(45) @ 190: uvm_test_top.env_h.scoreboard_h [write_drv STIM] in1=10111001  in2=10101111 s=0101 m=0 cin=0
UVM_INFO /home/runner/alu_scoreboard.sv(145) @ 190: uvm_test_top.env_h.scoreboard_h [write_mon OUT ] in1=10111001  in2=10101111 s=0101 m=0 cin=0  out=10010101 cout=1 aeb=0
UVM_INFO /home/runner/alu_scoreboard.sv(160) @ 190: uvm_test_top.env_h.scoreboard_h [
 PASS ] in1=10111001  in2=10101111 s=0101 m=0 cin=0  out=10010101 cout=1 aeb=0
UVM_INFO /home/runner/alu_scoreboard.sv(45) @ 195: uvm_test_top.env_h.scoreboard_h [write_drv STIM] in1=01001111  in2=10001101 s=0110 m=0 cin=0
UVM_INFO /home/runner/alu_scoreboard.sv(145) @ 195: uvm_test_top.env_h.scoreboard_h [write_mon OUT ] in1=01001111  in2=10001101 s=0110 m=0 cin=0  out=11010000 cout=0 aeb=0
UVM_INFO /home/runner/alu_scoreboard.sv(160) @ 195: uvm_test_top.env_h.scoreboard_h [
 PASS ] in1=01001111  in2=10001101 s=0110 m=0 cin=0  out=11010000 cout=0 aeb=0
UVM_INFO /home/runner/alu_scoreboard.sv(45) @ 200: uvm_test_top.env_h.scoreboard_h [write_drv STIM] in1=01001110  in2=00100000 s=0111 m=0 cin=0
UVM_INFO /home/runner/alu_scoreboard.sv(145) @ 200: uvm_test_top.env_h.scoreboard_h [write_mon OUT ] in1=01001110  in2=00100000 s=0111 m=0 cin=0  out=11000010 cout=0 aeb=0
UVM_INFO /home/runner/alu_scoreboard.sv(160) @ 200: uvm_test_top.env_h.scoreboard_h [
 PASS ] in1=01001110  in2=00100000 s=0111 m=0 cin=0  out=11000010 cout=0 aeb=0
UVM_INFO /home/runner/alu_scoreboard.sv(45) @ 205: uvm_test_top.env_h.scoreboard_h [write_drv STIM] in1=10110110  in2=01101000 s=1000 m=0 cin=0
UVM_INFO /home/runner/alu_scoreboard.sv(145) @ 205: uvm_test_top.env_h.scoreboard_h [write_mon OUT ] in1=10110110  in2=01101000 s=1000 m=0 cin=0  out=01001110 cout=0 aeb=0
UVM_INFO /home/runner/alu_scoreboard.sv(160) @ 205: uvm_test_top.env_h.scoreboard_h [
 PASS ] in1=10110110  in2=01101000 s=1000 m=0 cin=0  out=01001110 cout=0 aeb=0
UVM_INFO /home/runner/alu_scoreboard.sv(45) @ 210: uvm_test_top.env_h.scoreboard_h [write_drv STIM] in1=10000111  in2=01100101 s=1001 m=0 cin=0
UVM_INFO /home/runner/alu_scoreboard.sv(145) @ 210: uvm_test_top.env_h.scoreboard_h [write_mon OUT ] in1=10000111  in2=01100101 s=1001 m=0 cin=0  out=11010111 cout=0 aeb=0
UVM_INFO /home/runner/alu_scoreboard.sv(160) @ 210: uvm_test_top.env_h.scoreboard_h [
 PASS ] in1=10000111  in2=01100101 s=1001 m=0 cin=0  out=11010111 cout=0 aeb=0
UVM_INFO /home/runner/alu_scoreboard.sv(45) @ 215: uvm_test_top.env_h.scoreboard_h [write_drv STIM] in1=11000001  in2=00010111 s=1010 m=0 cin=0
UVM_INFO /home/runner/alu_scoreboard.sv(145) @ 215: uvm_test_top.env_h.scoreboard_h [write_mon OUT ] in1=11000001  in2=00010111 s=1010 m=0 cin=0  out=11101101 cout=0 aeb=0
UVM_INFO /home/runner/alu_scoreboard.sv(160) @ 215: uvm_test_top.env_h.scoreboard_h [
 PASS ] in1=11000001  in2=00010111 s=1010 m=0 cin=0  out=11101101 cout=0 aeb=0
UVM_INFO /home/runner/alu_scoreboard.sv(45) @ 220: uvm_test_top.env_h.scoreboard_h [write_drv STIM] in1=01100100  in2=01111110 s=1011 m=0 cin=0
UVM_INFO /home/runner/alu_scoreboard.sv(145) @ 220: uvm_test_top.env_h.scoreboard_h [write_mon OUT ] in1=01100100  in2=01111110 s=1011 m=0 cin=0  out=11101011 cout=0 aeb=0
UVM_INFO /home/runner/alu_scoreboard.sv(160) @ 220: uvm_test_top.env_h.scoreboard_h [
 PASS ] in1=01100100  in2=01111110 s=1011 m=0 cin=0  out=11101011 cout=0 aeb=0
UVM_INFO /home/runner/alu_scoreboard.sv(45) @ 225: uvm_test_top.env_h.scoreboard_h [write_drv STIM] in1=01110000  in2=10011010 s=1100 m=0 cin=0
UVM_INFO /home/runner/alu_scoreboard.sv(145) @ 225: uvm_test_top.env_h.scoreboard_h [write_mon OUT ] in1=01110000  in2=10011010 s=1100 m=0 cin=0  out=01100100 cout=0 aeb=0
UVM_INFO /home/runner/alu_scoreboard.sv(160) @ 225: uvm_test_top.env_h.scoreboard_h [
 PASS ] in1=01110000  in2=10011010 s=1100 m=0 cin=0  out=01100100 cout=0 aeb=0
UVM_INFO /home/runner/alu_scoreboard.sv(45) @ 230: uvm_test_top.env_h.scoreboard_h [write_drv STIM] in1=11100101  in2=01101011 s=1101 m=0 cin=0
UVM_INFO /home/runner/alu_scoreboard.sv(145) @ 230: uvm_test_top.env_h.scoreboard_h [write_mon OUT ] in1=11100101  in2=01101011 s=1101 m=0 cin=0  out=00000000 cout=0 aeb=0
UVM_INFO /home/runner/alu_scoreboard.sv(160) @ 230: uvm_test_top.env_h.scoreboard_h [
 PASS ] in1=11100101  in2=01101011 s=1101 m=0 cin=0  out=00000000 cout=0 aeb=0
UVM_INFO /home/runner/alu_scoreboard.sv(45) @ 235: uvm_test_top.env_h.scoreboard_h [write_drv STIM] in1=11000011  in2=11110001 s=1110 m=0 cin=0
UVM_INFO /home/runner/alu_scoreboard.sv(145) @ 235: uvm_test_top.env_h.scoreboard_h [write_mon OUT ] in1=11000011  in2=11110001 s=1110 m=0 cin=0  out=11010101 cout=1 aeb=0
UVM_INFO /home/runner/alu_scoreboard.sv(160) @ 235: uvm_test_top.env_h.scoreboard_h [
 PASS ] in1=11000011  in2=11110001 s=1110 m=0 cin=0  out=11010101 cout=1 aeb=0
UVM_INFO /home/runner/alu_scoreboard.sv(45) @ 240: uvm_test_top.env_h.scoreboard_h [write_drv STIM] in1=00001010  in2=00101100 s=1111 m=0 cin=0
UVM_INFO /home/runner/alu_scoreboard.sv(145) @ 240: uvm_test_top.env_h.scoreboard_h [write_mon OUT ] in1=00001010  in2=00101100 s=1111 m=0 cin=0  out=10010011 cout=0 aeb=0
UVM_INFO /home/runner/alu_scoreboard.sv(160) @ 240: uvm_test_top.env_h.scoreboard_h [
 PASS ] in1=00001010  in2=00101100 s=1111 m=0 cin=0  out=10010011 cout=0 aeb=0
UVM_INFO /home/runner/alu_scoreboard.sv(45) @ 245: uvm_test_top.env_h.scoreboard_h [write_drv STIM] in1=10111010  in2=00011100 s=0000 m=0 cin=0
UVM_INFO /home/runner/alu_scoreboard.sv(145) @ 245: uvm_test_top.env_h.scoreboard_h [write_mon OUT ] in1=10111010  in2=00011100 s=0000 m=0 cin=0  out=00001010 cout=0 aeb=0
UVM_INFO /home/runner/alu_scoreboard.sv(160) @ 245: uvm_test_top.env_h.scoreboard_h [
 PASS ] in1=10111010  in2=00011100 s=0000 m=0 cin=0  out=00001010 cout=0 aeb=0
UVM_INFO /home/runner/alu_scoreboard.sv(45) @ 250: uvm_test_top.env_h.scoreboard_h [write_drv STIM] in1=11010011  in2=11000001 s=0001 m=0 cin=0
UVM_INFO /home/runner/alu_scoreboard.sv(145) @ 250: uvm_test_top.env_h.scoreboard_h [write_mon OUT ] in1=11010011  in2=11000001 s=0001 m=0 cin=0  out=10111011 cout=1 aeb=0
UVM_INFO /home/runner/alu_scoreboard.sv(160) @ 250: uvm_test_top.env_h.scoreboard_h [
 PASS ] in1=11010011  in2=11000001 s=0001 m=0 cin=0  out=10111011 cout=1 aeb=0
UVM_INFO /home/runner/alu_scoreboard.sv(45) @ 255: uvm_test_top.env_h.scoreboard_h [write_drv STIM] in1=01010101  in2=00011011 s=0010 m=0 cin=0
